{
  "games_not_found": "Pas de partie trouvée... Réessaie en changeant de personnage ou attends quelques secondes !",
  "game_not_found": "Cette partie n'existe pas... Réessaie avec une autre.",
  "wrong_identifier": "Oups... Mauvais identifiants...",
  "wrong_token": "Vous avez été deconnecté",
  "existing_account": "Un compte existe déjà à ce nom.",
  "too_short_name": "L'ensemble 'nom' et 'prénom' ne peut être plus court que 4 caractères.",
  "invalid_user_id": "Merci de te connecter avant de rejoindre une partie.",
  "same_character": "Choisis un autre personage, celui-ci est déjà pris.",
  "unexisting_user": "Aucun compte à ce nom.",
  "still_connected_as_p1": "Vous avez déjà rejoint cette salle en joueur 1..."
}
